Graphs - Kartaram et al., 2018
…
  dplyr::summarise(mean_conc = round(mean(concentration), digits = 4),
            sd = round(sd(concentration), digits = 3),
            n_obs = n(),
            sem = round(sd/sqrt(n_obs), digits = 3)
            ) %>%
  dplyr::arrange(protocol, analyte)
  
#names(diagrams_summary)[1] <- c("protocol")
#names(diagrams_summary)[2] <- c("time")
data_summary

## # A tibble: 320 x 7
## # Groups:   protocol, time [40]
##    protocol time  analyte mean_conc    sd n_obs   sem
##    <fct>    <fct> <chr>       <dbl> <dbl> <int> <dbl>
##  1 P1       0     ala         341.   80.7    15 20.8 
##  2 P1       0.5   ala         366.   89.8    15 23.2 
##  3 P1       1     ala         387.   84.7    15 21.9 
##  4 P1       1.5   ala         993.  308.     15 79.5 
##  5 P1       2     ala         799.  215.     14 57.5 
##  6 P1       3     ala         467.  125.     15 32.4 
##  7 P1       6     ala         336.   75.3    15 19.4 
##  8 P1       24    ala         394.   69.2    15 17.9 
##  9 P1       0     arg          94.8  12.3    15  3.19
## 10 P1       0.5   arg         117.   22.0    15  5.69
## # ... with 310 more rows
…
## # A tibble: 8 x 2
##   analyte data             
##   <chr>   <list>           
## 1 ala     <tibble [40 x 6]>
## 2 arg     <tibble [40 x 6]>
## 3 citrul  <tibble [40 x 6]>
## 4 CK      <tibble [40 x 6]>
## 5 CORT    <tibble [40 x 6]>
## 6 gln     <tibble [40 x 6]>
## 7 ifabp   <tibble [40 x 6]>
## 8 UREUM   <tibble [40 x 6]>

data_by_analyte$data[[1]]

## # A tibble: 40 x 6
##    protocol time  mean_conc    sd n_obs   sem
##    <fct>    <fct>     <dbl> <dbl> <int> <dbl>
##  1 P1       0          341.  80.7    15  20.8
##  2 P1       0.5        366.  89.8    15  23.2
##  3 P1       1          387.  84.7    15  21.9
##  4 P1       1.5        993. 308.     15  79.5
##  5 P1       2          799. 215.     14  57.5
##  6 P1       3          467. 125.     15  32.4
##  7 P1       6          336.  75.3    15  19.4
##  8 P1       24         394.  69.2    15  17.9
##  9 P2       0          358.  42.4    15  11.0
## 10 P2       0.5        617.  46.6    14  12.5
## # ... with 30 more rows
…
